<?xml version="1.0"?>
<robot name="black_cube_no_collision">

  <link name="base_link">
    <visual>
      <geometry>
        <box size="0.058 0.058 0.058"/>
      </geometry>
    </visual>
    <inertial>
      <mass value="0.1"/>
      <inertia ixx="0.000056" ixy="0.0" ixz="0.0" iyy="0.000056" iyz="0.0" izz="0.000056"/>
    </inertial>
  </link>

  <gazebo reference="base_link">
    <material>Gazebo/Black</material>
  </gazebo>
</robot>
